EESchema Schematic File Version 2
LIBS:power
LIBS:device
LIBS:transistors
LIBS:conn
LIBS:linear
LIBS:regul
LIBS:74xx
LIBS:cmos4000
LIBS:adc-dac
LIBS:memory
LIBS:xilinx
LIBS:microcontrollers
LIBS:dsp
LIBS:microchip
LIBS:analog_switches
LIBS:motorola
LIBS:texas
LIBS:intel
LIBS:audio
LIBS:interface
LIBS:digital-audio
LIBS:philips
LIBS:display
LIBS:cypress
LIBS:siliconi
LIBS:opto
LIBS:atmel
LIBS:contrib
LIBS:valves
LIBS:addon
LIBS:project-cache
EELAYER 25 0
EELAYER END
$Descr A4 11693 8268
encoding utf-8
Sheet 1 1
Title ""
Date ""
Rev ""
Comp ""
Comment1 ""
Comment2 ""
Comment3 ""
Comment4 ""
$EndDescr
$Comp
L CP C6
U 1 1 57DB9558
P 4500 4150
F 0 "C6" H 4525 4250 50  0000 L CNN
F 1 "4u7 400V" H 4350 4050 50  0000 L CNN
F 2 "Local:C_Radial_D10_L20_P5" H 4538 4000 50  0001 C CNN
F 3 "" H 4500 4150 50  0000 C CNN
	1    4500 4150
	1    0    0    -1  
$EndComp
$Comp
L DBi D4
U 1 1 57DB95EC
P 4000 3900
F 0 "D4" H 3750 4200 50  0000 C CNN
F 1 "MB6S" H 4000 3900 50  0000 C CNN
F 2 "Local:TO-269AA" H 4000 3900 50  0001 C CNN
F 3 "" H 4000 3900 50  0000 C CNN
	1    4000 3900
	1    0    0    -1  
$EndComp
$Comp
L Earth #PWR01
U 1 1 57DB966D
P 3500 4000
F 0 "#PWR01" H 3500 3750 50  0001 C CNN
F 1 "Earth" H 3500 3850 50  0001 C CNN
F 2 "" H 3500 4000 50  0000 C CNN
F 3 "" H 3500 4000 50  0000 C CNN
	1    3500 4000
	1    0    0    -1  
$EndComp
$Comp
L Earth #PWR02
U 1 1 57DB9689
P 4500 4400
F 0 "#PWR02" H 4500 4150 50  0001 C CNN
F 1 "Earth" H 4500 4250 50  0001 C CNN
F 2 "" H 4500 4400 50  0000 C CNN
F 3 "" H 4500 4400 50  0000 C CNN
	1    4500 4400
	1    0    0    -1  
$EndComp
$Comp
L CONN_01X02 P2
U 1 1 57DB976A
P 3100 3950
F 0 "P2" H 3100 4100 50  0000 C CNN
F 1 "250VAC" V 3200 3950 50  0000 C CNN
F 2 "Local:Pin_Header_Straight_1x02_s3.8" H 3100 3950 50  0001 C CNN
F 3 "" H 3100 3950 50  0000 C CNN
	1    3100 3950
	-1   0    0    -1  
$EndComp
$Comp
L F_Small F1
U 1 1 57DB97FC
P 3700 3400
F 0 "F1" H 3660 3460 50  0000 L CNN
F 1 "1A" H 3650 3350 50  0000 L CNN
F 2 "Local:FUSE_1A" H 3700 3400 50  0001 C CNN
F 3 "" H 3700 3400 50  0000 C CNN
	1    3700 3400
	1    0    0    -1  
$EndComp
$Comp
L R R5
U 1 1 57DB991A
P 4900 4050
F 0 "R5" V 4980 4050 50  0000 C CNN
F 1 "1M" V 4900 4050 50  0000 C CNN
F 2 "Local:R_1206" V 4830 4050 50  0001 C CNN
F 3 "" H 4900 4050 50  0000 C CNN
	1    4900 4050
	-1   0    0    -1  
$EndComp
$Comp
L R R9
U 1 1 57DB998E
P 4900 4450
F 0 "R9" V 4980 4450 50  0000 C CNN
F 1 "1M" V 4900 4450 50  0000 C CNN
F 2 "Local:R_1206" V 4830 4450 50  0001 C CNN
F 3 "" H 4900 4450 50  0000 C CNN
	1    4900 4450
	-1   0    0    -1  
$EndComp
$Comp
L THX208H U1
U 1 1 57DB9BED
P 3800 2550
F 0 "U1" H 3800 2900 60  0000 C CNN
F 1 "THX208H" V 3800 2550 60  0000 C CNN
F 2 "Local:SOP8-6P" H 3800 2550 60  0001 C CNN
F 3 "" H 3800 2550 60  0000 C CNN
	1    3800 2550
	1    0    0    -1  
$EndComp
$Comp
L C C8
U 1 1 57DB9EE3
P 4900 4950
F 0 "C8" H 4925 5050 50  0000 L CNN
F 1 "10n" H 4925 4850 50  0000 L CNN
F 2 "Local:C_0603" H 4938 4800 50  0001 C CNN
F 3 "" H 4900 4950 50  0000 C CNN
	1    4900 4950
	1    0    0    -1  
$EndComp
$Comp
L Earth #PWR03
U 1 1 57DB9FA2
P 4900 5200
F 0 "#PWR03" H 4900 4950 50  0001 C CNN
F 1 "Earth" H 4900 5050 50  0001 C CNN
F 2 "" H 4900 5200 50  0000 C CNN
F 3 "" H 4900 5200 50  0000 C CNN
	1    4900 5200
	1    0    0    -1  
$EndComp
$Comp
L C C1
U 1 1 57DBA2B3
P 3050 2350
F 0 "C1" V 3100 2450 50  0000 L CNN
F 1 "330p" V 3000 2100 50  0000 L CNN
F 2 "Local:C_0603" H 3088 2200 50  0001 C CNN
F 3 "" H 3050 2350 50  0000 C CNN
	1    3050 2350
	0    -1   -1   0   
$EndComp
$Comp
L Earth #PWR04
U 1 1 57DBA316
P 2800 2450
F 0 "#PWR04" H 2800 2200 50  0001 C CNN
F 1 "Earth" H 2800 2300 50  0001 C CNN
F 2 "" H 2800 2450 50  0000 C CNN
F 3 "" H 2800 2450 50  0000 C CNN
	1    2800 2450
	1    0    0    -1  
$EndComp
$Comp
L Earth #PWR05
U 1 1 57DBAB30
P 3200 2850
F 0 "#PWR05" H 3200 2600 50  0001 C CNN
F 1 "Earth" H 3200 2700 50  0001 C CNN
F 2 "" H 3200 2850 50  0000 C CNN
F 3 "" H 3200 2850 50  0000 C CNN
	1    3200 2850
	1    0    0    -1  
$EndComp
Text Label 5250 4700 2    39   ~ 0
INIT_PWR
Text Label 4700 2750 2    39   ~ 0
INIT_PWR
Text Label 4700 2350 2    39   ~ 0
WORK_PWR
Text Label 3000 2550 0    39   ~ 0
FEEDBACK
Text Label 4700 2550 2    39   ~ 0
SWITCH
$Comp
L TRANS_3V T1
U 1 1 57DBB0CD
P 6200 2600
F 0 "T1" H 6200 3100 50  0000 C CNN
F 1 "TRANS_3X" H 6200 2100 50  0000 C CNN
F 2 "Local:TRANS_EE16_6" H 6200 2600 60  0001 C CNN
F 3 "" H 6200 2600 60  0000 C CNN
	1    6200 2600
	1    0    0    -1  
$EndComp
$Comp
L D D2
U 1 1 57DBB222
P 6850 2700
F 0 "D2" H 6850 2800 50  0000 C CNN
F 1 "1N4148" H 6850 2600 50  0000 C CNN
F 2 "Local:MiniMELF_Standard" H 6850 2700 50  0001 C CNN
F 3 "" H 6850 2700 50  0000 C CNN
	1    6850 2700
	-1   0    0    -1  
$EndComp
$Comp
L Earth #PWR06
U 1 1 57DBB2BC
P 6700 3100
F 0 "#PWR06" H 6700 2850 50  0001 C CNN
F 1 "Earth" H 6700 2950 50  0001 C CNN
F 2 "" H 6700 3100 50  0000 C CNN
F 3 "" H 6700 3100 50  0000 C CNN
	1    6700 3100
	1    0    0    -1  
$EndComp
Text Label 7400 2700 2    39   ~ 0
WORK_PWR
Text Label 5500 2800 0    39   ~ 0
SWITCH
Text Label 4500 3400 3    39   ~ 0
HV_PWR
Text Label 4900 3400 3    39   ~ 0
HV_PWR
Text Label 5500 2400 0    39   ~ 0
HV_PWR
$Comp
L C C2
U 1 1 57DBB933
P 5150 2500
F 0 "C2" V 5300 2450 50  0000 L CNN
F 1 "2n2 1kV" V 5100 2100 50  0000 L CNN
F 2 "Local:C_1206" H 5188 2350 50  0001 C CNN
F 3 "" H 5150 2500 50  0000 C CNN
	1    5150 2500
	0    -1   -1   0   
$EndComp
$Comp
L D D3
U 1 1 57DBB986
P 5150 2800
F 0 "D3" H 5150 2900 50  0000 C CNN
F 1 "FR107" H 5150 2700 50  0000 C CNN
F 2 "Local:Diode_DO-41_SOD81_Horizontal_RM10" H 5150 2800 50  0001 C CNN
F 3 "" H 5150 2800 50  0000 C CNN
	1    5150 2800
	1    0    0    -1  
$EndComp
$Comp
L R R1
U 1 1 57DBB9F7
P 5150 2200
F 0 "R1" V 5230 2200 50  0000 C CNN
F 1 "100K" V 5150 2200 50  0000 C CNN
F 2 "Local:R_1206" V 5080 2200 50  0001 C CNN
F 3 "" H 5150 2200 50  0000 C CNN
	1    5150 2200
	0    -1   -1   0   
$EndComp
$Comp
L GND #PWR07
U 1 1 57DBC4C2
P 6700 2500
F 0 "#PWR07" H 6700 2250 50  0001 C CNN
F 1 "GND" V 6700 2300 50  0000 C CNN
F 2 "" H 6700 2500 50  0000 C CNN
F 3 "" H 6700 2500 50  0000 C CNN
	1    6700 2500
	0    -1   -1   0   
$EndComp
$Comp
L D_Schottky D1
U 1 1 57DBC627
P 6850 2200
F 0 "D1" H 6850 2300 50  0000 C CNN
F 1 "SS26" H 6850 2100 50  0000 C CNN
F 2 "Local:SMA_Standard" H 6850 2200 50  0001 C CNN
F 3 "" H 6850 2200 50  0000 C CNN
	1    6850 2200
	-1   0    0    -1  
$EndComp
Text Label 7400 2200 2    39   ~ 0
OUT_PWR
$Comp
L CP C3
U 1 1 57DBC935
P 7800 2550
F 0 "C3" H 7825 2650 50  0000 L CNN
F 1 "470u 16V" H 7600 2450 50  0000 L CNN
F 2 "Local:C_Radial_D10_L20_P5" H 7838 2400 50  0001 C CNN
F 3 "" H 7800 2550 50  0000 C CNN
	1    7800 2550
	1    0    0    -1  
$EndComp
$Comp
L GND #PWR08
U 1 1 57DBC98A
P 7800 2800
F 0 "#PWR08" H 7800 2550 50  0001 C CNN
F 1 "GND" H 7800 2650 50  0000 C CNN
F 2 "" H 7800 2800 50  0000 C CNN
F 3 "" H 7800 2800 50  0000 C CNN
	1    7800 2800
	1    0    0    -1  
$EndComp
Text Label 7800 2100 3    39   ~ 0
OUT_PWR
$Comp
L CONN_01X02 P1
U 1 1 57DBCDFC
P 8500 2550
F 0 "P1" H 8500 2700 50  0000 C CNN
F 1 "5VDC" V 8600 2550 50  0000 C CNN
F 2 "Local:Pin_Header_Straight_1x02" H 8500 2550 50  0001 C CNN
F 3 "" H 8500 2550 50  0000 C CNN
	1    8500 2550
	1    0    0    1   
$EndComp
$Comp
L GND #PWR09
U 1 1 57DBCF8A
P 8200 2800
F 0 "#PWR09" H 8200 2550 50  0001 C CNN
F 1 "GND" H 8200 2650 50  0000 C CNN
F 2 "" H 8200 2800 50  0000 C CNN
F 3 "" H 8200 2800 50  0000 C CNN
	1    8200 2800
	1    0    0    -1  
$EndComp
Text Label 8200 2100 3    39   ~ 0
OUT_PWR
Text Label 7800 3300 3    39   ~ 0
OUT_PWR
$Comp
L R R7
U 1 1 57DBD3F5
P 7800 4150
F 0 "R7" V 7880 4150 50  0000 C CNN
F 1 "10K" V 7800 4150 50  0000 C CNN
F 2 "Local:R_0603" V 7730 4150 50  0001 C CNN
F 3 "" H 7800 4150 50  0000 C CNN
	1    7800 4150
	-1   0    0    -1  
$EndComp
$Comp
L R R10
U 1 1 57DBD45C
P 7800 4950
F 0 "R10" V 7880 4950 50  0000 C CNN
F 1 "10K" V 7800 4950 50  0000 C CNN
F 2 "Local:R_0603" V 7730 4950 50  0001 C CNN
F 3 "" H 7800 4950 50  0000 C CNN
	1    7800 4950
	-1   0    0    -1  
$EndComp
$Comp
L GND #PWR010
U 1 1 57DBD54F
P 7800 5200
F 0 "#PWR010" H 7800 4950 50  0001 C CNN
F 1 "GND" H 7800 5050 50  0000 C CNN
F 2 "" H 7800 5200 50  0000 C CNN
F 3 "" H 7800 5200 50  0000 C CNN
	1    7800 5200
	1    0    0    -1  
$EndComp
$Comp
L TL431S U3
U 1 1 57DBD770
P 6900 4700
F 0 "U3" H 6800 4750 50  0000 C CNN
F 1 "TL431" V 7000 4700 50  0000 C CNN
F 2 "Local:SOT-23-R" V 6900 4700 60  0001 C CNN
F 3 "" V 6900 4700 60  0000 C CNN
	1    6900 4700
	-1   0    0    -1  
$EndComp
$Comp
L C C7
U 1 1 57DBD7F5
P 7550 4400
F 0 "C7" V 7700 4350 50  0000 L CNN
F 1 "100n" V 7400 4300 50  0000 L CNN
F 2 "Local:C_0603" V 7588 4250 50  0001 C CNN
F 3 "" H 7550 4400 50  0000 C CNN
	1    7550 4400
	0    -1   -1   0   
$EndComp
$Comp
L R R8
U 1 1 57DBD8FC
P 7150 4400
F 0 "R8" V 7230 4400 50  0000 C CNN
F 1 "10K" V 7150 4400 50  0000 C CNN
F 2 "Local:R_0603" V 7080 4400 50  0001 C CNN
F 3 "" H 7150 4400 50  0000 C CNN
	1    7150 4400
	0    -1   -1   0   
$EndComp
$Comp
L R R6
U 1 1 57DBDB6B
P 6900 4150
F 0 "R6" V 6980 4150 50  0000 C CNN
F 1 "1K" V 6900 4150 50  0000 C CNN
F 2 "Local:R_0603" V 6830 4150 50  0001 C CNN
F 3 "" H 6900 4150 50  0000 C CNN
	1    6900 4150
	-1   0    0    -1  
$EndComp
Text Label 6900 3400 3    39   ~ 0
OUT_PWR
$Comp
L PC817 U2
U 1 1 57DBEDF9
P 6300 4300
F 0 "U2" H 6250 4500 50  0000 L CNN
F 1 "LTV-356T" H 6100 4100 50  0000 L CNN
F 2 "Local:OPTO4S" H 6100 4100 50  0001 L CIN
F 3 "" H 6300 4300 50  0000 L CNN
	1    6300 4300
	-1   0    0    -1  
$EndComp
$Comp
L GND #PWR011
U 1 1 57DBEE88
P 6900 5200
F 0 "#PWR011" H 6900 4950 50  0001 C CNN
F 1 "GND" H 6900 5050 50  0000 C CNN
F 2 "" H 6900 5200 50  0000 C CNN
F 3 "" H 6900 5200 50  0000 C CNN
	1    6900 5200
	1    0    0    -1  
$EndComp
$Comp
L R R4
U 1 1 57DBF107
P 6700 3950
F 0 "R4" V 6780 3950 50  0000 C CNN
F 1 "100" V 6700 3950 50  0000 C CNN
F 2 "Local:R_0603" V 6630 3950 50  0001 C CNN
F 3 "" H 6700 3950 50  0000 C CNN
	1    6700 3950
	-1   0    0    -1  
$EndComp
Text Label 6700 3400 3    39   ~ 0
OUT_PWR
$Comp
L R R3
U 1 1 57DBF71E
P 7800 3750
F 0 "R3" V 7880 3750 50  0000 C CNN
F 1 "470" V 7800 3750 50  0000 C CNN
F 2 "Local:R_0603" V 7730 3750 50  0001 C CNN
F 3 "" H 7800 3750 50  0000 C CNN
	1    7800 3750
	-1   0    0    -1  
$EndComp
Text Label 5600 4200 0    39   ~ 0
FEEDBACK
$Comp
L Earth #PWR012
U 1 1 57DBFC75
P 5900 4500
F 0 "#PWR012" H 5900 4250 50  0001 C CNN
F 1 "Earth" H 5900 4350 50  0001 C CNN
F 2 "" H 5900 4500 50  0000 C CNN
F 3 "" H 5900 4500 50  0000 C CNN
	1    5900 4500
	1    0    0    -1  
$EndComp
$Comp
L C C5
U 1 1 57DC0078
P 5400 3650
F 0 "C5" H 5425 3750 50  0000 L CNN
F 1 "10n" H 5425 3550 50  0000 L CNN
F 2 "Local:C_0603" H 5438 3500 50  0001 C CNN
F 3 "" H 5400 3650 50  0000 C CNN
	1    5400 3650
	1    0    0    -1  
$EndComp
$Comp
L R R2
U 1 1 57DC0152
P 5800 3650
F 0 "R2" V 5880 3650 50  0000 C CNN
F 1 "10K" V 5800 3650 50  0000 C CNN
F 2 "Local:R_0603" V 5730 3650 50  0001 C CNN
F 3 "" H 5800 3650 50  0000 C CNN
	1    5800 3650
	-1   0    0    -1  
$EndComp
Text Label 5400 3100 3    39   ~ 0
FEEDBACK
Text Label 5800 3100 3    39   ~ 0
FEEDBACK
$Comp
L Earth #PWR013
U 1 1 57DC07BA
P 5800 3900
F 0 "#PWR013" H 5800 3650 50  0001 C CNN
F 1 "Earth" H 5800 3750 50  0001 C CNN
F 2 "" H 5800 3900 50  0000 C CNN
F 3 "" H 5800 3900 50  0000 C CNN
	1    5800 3900
	1    0    0    -1  
$EndComp
$Comp
L Earth #PWR014
U 1 1 57DC0819
P 5400 3900
F 0 "#PWR014" H 5400 3650 50  0001 C CNN
F 1 "Earth" H 5400 3750 50  0001 C CNN
F 2 "" H 5400 3900 50  0000 C CNN
F 3 "" H 5400 3900 50  0000 C CNN
	1    5400 3900
	1    0    0    -1  
$EndComp
$Comp
L C C9
U 1 1 57DC12C6
P 6250 5100
F 0 "C9" V 6400 5050 50  0000 L CNN
F 1 "470p 400V" V 6100 4900 50  0000 L CNN
F 2 "Local:C_1206" H 6288 4950 50  0001 C CNN
F 3 "" H 6250 5100 50  0000 C CNN
	1    6250 5100
	0    -1   -1   0   
$EndComp
$Comp
L Earth #PWR015
U 1 1 57DC1364
P 5900 5200
F 0 "#PWR015" H 5900 4950 50  0001 C CNN
F 1 "Earth" H 5900 5050 50  0001 C CNN
F 2 "" H 5900 5200 50  0000 C CNN
F 3 "" H 5900 5200 50  0000 C CNN
	1    5900 5200
	1    0    0    -1  
$EndComp
$Comp
L GND #PWR016
U 1 1 57DC13E3
P 6600 5200
F 0 "#PWR016" H 6600 4950 50  0001 C CNN
F 1 "GND" H 6600 5050 50  0000 C CNN
F 2 "" H 6600 5200 50  0000 C CNN
F 3 "" H 6600 5200 50  0000 C CNN
	1    6600 5200
	1    0    0    -1  
$EndComp
$Comp
L CP C4
U 1 1 57DC1D09
P 7300 3450
F 0 "C4" H 7325 3550 50  0000 L CNN
F 1 "2u2 16V" H 7150 3350 50  0000 L CNN
F 2 "Local:C_1206" H 7338 3300 50  0001 C CNN
F 3 "" H 7300 3450 50  0000 C CNN
	1    7300 3450
	1    0    0    -1  
$EndComp
$Comp
L Earth #PWR017
U 1 1 57DC229B
P 7300 3700
F 0 "#PWR017" H 7300 3450 50  0001 C CNN
F 1 "Earth" H 7300 3550 50  0001 C CNN
F 2 "" H 7300 3700 50  0000 C CNN
F 3 "" H 7300 3700 50  0000 C CNN
	1    7300 3700
	1    0    0    -1  
$EndComp
Text Label 7300 2900 3    39   ~ 0
WORK_PWR
$Comp
L R R11
U 1 1 57E53BFB
P 8200 3750
F 0 "R11" V 8280 3750 50  0000 C CNN
F 1 "1K" V 8200 3750 50  0000 C CNN
F 2 "Local:R_0603" V 8130 3750 50  0001 C CNN
F 3 "" H 8200 3750 50  0000 C CNN
	1    8200 3750
	-1   0    0    -1  
$EndComp
Text Label 8200 3300 3    39   ~ 0
OUT_PWR
$Comp
L LED D5
U 1 1 57E53F3D
P 8200 4200
F 0 "D5" H 8200 4300 50  0000 C CNN
F 1 "LED" H 8200 4100 50  0000 C CNN
F 2 "Local:LED_0603" H 8200 4200 50  0001 C CNN
F 3 "" H 8200 4200 50  0000 C CNN
	1    8200 4200
	0    -1   -1   0   
$EndComp
$Comp
L GND #PWR018
U 1 1 57E54010
P 8200 4500
F 0 "#PWR018" H 8200 4250 50  0001 C CNN
F 1 "GND" H 8200 4350 50  0000 C CNN
F 2 "" H 8200 4500 50  0000 C CNN
F 3 "" H 8200 4500 50  0000 C CNN
	1    8200 4500
	1    0    0    -1  
$EndComp
Text Notes 9050 4050 0    60   ~ 0
/* pulse transformer */\n\nEQ[L]: L = A[L] * n^2;\nEQ[A[L]]: solve(EQ[L], A[L])[1];\n\nPR[n1]: n=180;\nPR[L1]: L=2.717e-3;\nPR[n2]: n=15;\nPR[L2]: L=27.7e-6;\nPR[n3]: n=11.5;\nPR[L3]: L=17.5e-6;\n\nEQ[A[L]], PR[n1], PR[L1];\nEQ[A[L]], PR[n2], PR[L2];\nEQ[A[L]], PR[n3], PR[L3];\n\nPR[A[L]]: A[L]=84e-9;\n\nEQ[L], PR[A[L]], PR[n1];\nEQ[L], PR[A[L]], PR[n2];\nEQ[L], PR[A[L]], PR[n3];
Text Notes 5900 2600 0    60   ~ 0
W1
Text Notes 6450 2850 0    60   ~ 0
W2
Text Notes 6450 2350 0    60   ~ 0
W3
Text Notes 5900 1950 0    60   ~ 0
W1: 0.2mm 180T 2.7mH\nW2: 0.2mm 15T ?!!!! maybe less actually needed\nW3: 0.5mm 11.5T
Wire Wire Line
	3600 3900 3500 3900
Wire Wire Line
	3500 3900 3500 4000
Wire Wire Line
	4500 4300 4500 4400
Wire Wire Line
	4500 3400 4500 4000
Wire Wire Line
	4500 3900 4400 3900
Wire Wire Line
	4000 4300 4000 4400
Wire Wire Line
	4000 4400 3400 4400
Wire Wire Line
	3400 4400 3400 4000
Wire Wire Line
	3400 4000 3300 4000
Wire Wire Line
	4000 3500 4000 3400
Wire Wire Line
	3400 3400 3400 3900
Wire Wire Line
	3400 3900 3300 3900
Wire Wire Line
	4000 3400 3800 3400
Wire Wire Line
	3600 3400 3400 3400
Wire Wire Line
	4900 4200 4900 4300
Connection ~ 4500 3900
Wire Wire Line
	4900 3400 4900 3900
Wire Wire Line
	4900 4600 4900 4800
Wire Wire Line
	4900 5100 4900 5200
Wire Wire Line
	4900 4700 5250 4700
Connection ~ 4900 4700
Wire Wire Line
	4700 2750 4300 2750
Wire Wire Line
	2800 2450 2800 2350
Wire Wire Line
	2800 2350 2900 2350
Wire Wire Line
	3300 2350 3200 2350
Wire Wire Line
	4300 2350 4700 2350
Wire Wire Line
	3300 2750 3200 2750
Wire Wire Line
	3200 2750 3200 2850
Wire Wire Line
	3300 2550 3000 2550
Wire Wire Line
	4300 2550 4700 2550
Wire Wire Line
	6600 2700 6700 2700
Wire Wire Line
	6600 3000 6700 3000
Wire Wire Line
	6700 3000 6700 3100
Wire Wire Line
	7000 2700 7400 2700
Wire Wire Line
	5800 2800 5300 2800
Wire Wire Line
	5800 2400 5400 2400
Wire Wire Line
	4900 2800 5000 2800
Wire Wire Line
	4900 2200 4900 2800
Wire Wire Line
	4900 2500 5000 2500
Wire Wire Line
	5000 2200 4900 2200
Connection ~ 4900 2500
Wire Wire Line
	5300 2200 5400 2200
Wire Wire Line
	5400 2200 5400 2500
Wire Wire Line
	5400 2500 5300 2500
Connection ~ 5400 2400
Wire Wire Line
	6600 2500 6700 2500
Wire Wire Line
	6600 2200 6700 2200
Wire Wire Line
	7000 2200 7400 2200
Wire Wire Line
	7800 2700 7800 2800
Wire Wire Line
	7800 2400 7800 2100
Wire Wire Line
	8300 2600 8200 2600
Wire Wire Line
	8200 2600 8200 2800
Wire Wire Line
	8300 2500 8200 2500
Wire Wire Line
	8200 2500 8200 2100
Wire Wire Line
	7800 3300 7800 3600
Wire Wire Line
	7800 4300 7800 4800
Wire Wire Line
	7800 5100 7800 5200
Wire Wire Line
	7800 4400 7700 4400
Connection ~ 7800 4400
Wire Wire Line
	6600 4400 7000 4400
Wire Wire Line
	6900 4300 6900 4500
Wire Wire Line
	6900 4000 6900 3400
Wire Wire Line
	7100 4700 7800 4700
Connection ~ 7800 4700
Wire Wire Line
	7400 4400 7300 4400
Connection ~ 6900 4400
Wire Wire Line
	6900 4900 6900 5200
Wire Wire Line
	6600 4200 6700 4200
Wire Wire Line
	6700 4200 6700 4100
Wire Wire Line
	6700 3800 6700 3400
Wire Wire Line
	7800 3900 7800 4000
Wire Wire Line
	6000 4400 5900 4400
Wire Wire Line
	5900 4400 5900 4500
Wire Wire Line
	6000 4200 5600 4200
Wire Wire Line
	5800 3800 5800 3900
Wire Wire Line
	5400 3800 5400 3900
Wire Wire Line
	5400 3500 5400 3100
Wire Wire Line
	5800 3500 5800 3100
Wire Wire Line
	6400 5100 6600 5100
Wire Wire Line
	6600 5100 6600 5200
Wire Wire Line
	6100 5100 5900 5100
Wire Wire Line
	5900 5100 5900 5200
Wire Wire Line
	7300 3600 7300 3700
Wire Wire Line
	7300 3300 7300 2900
Wire Wire Line
	8200 3300 8200 3600
Wire Wire Line
	8200 3900 8200 4000
Wire Wire Line
	8200 4400 8200 4500
Text Notes 2850 1800 0    60   ~ 0
/* internal current sense and limiting */\nEQ[I[LIM]]: I[LIM] = V[CMP] / R[IS];\nEQ[R[IS]]: solve(EQ[I[LIM]], R[IS])[1];\nEQ[P[R[IS]]]: P[R[IS]] = (I[LIM] / 2)^2 * R[IS]; \nPR[THX208H]: V[CMP]=0.6$\nPR[I[LIM]]: I[LIM]=0.23$\nEQ[R[IS]], PR[THX208H], PR[I[LIM]];\nPR[R[IS]]: R[IS]=2.6$\nPR[I[LIM(RES)]]: EQ[I[LIM]], PR[THX208H], PR[R[IS]];\nEQ[P[R[IS]]], PR[I[LIM(RES)]], PR[R[IS]];
Text Notes 750  2850 0    60   ~ 0
/* switching frequency */\nEQ[F[S]]: F[S] = (C[T] * 48e3)^-1;\nEQ[C[T]]: solve(EQ[F[S]], C[T])[1];\nPR[REF]: F[S] = 60e3;\nEQ[C[T]], PR[REF];\nEQ[F[S]], C[T] = 330e-12 /* 63kHz */;
$Comp
L CONN_01X01 M1
U 1 1 582C43C3
P 9100 4500
F 0 "M1" H 9100 4600 50  0000 C CNN
F 1 "M3" V 9200 4500 50  0000 C CNN
F 2 "Local:MountingHole_3mm" H 9100 4500 50  0001 C CNN
F 3 "" H 9100 4500 50  0000 C CNN
	1    9100 4500
	0    -1   -1   0   
$EndComp
$Comp
L CONN_01X01 M2
U 1 1 582C472A
P 9500 4500
F 0 "M2" H 9500 4600 50  0000 C CNN
F 1 "M3" V 9600 4500 50  0000 C CNN
F 2 "Local:MountingHole_3mm" H 9500 4500 50  0001 C CNN
F 3 "" H 9500 4500 50  0000 C CNN
	1    9500 4500
	0    -1   -1   0   
$EndComp
$Comp
L CONN_01X01 M3
U 1 1 582C47AC
P 9900 4500
F 0 "M3" H 9900 4600 50  0000 C CNN
F 1 "M3" V 10000 4500 50  0000 C CNN
F 2 "Local:MountingHole_3mm" H 9900 4500 50  0001 C CNN
F 3 "" H 9900 4500 50  0000 C CNN
	1    9900 4500
	0    -1   -1   0   
$EndComp
$Comp
L CONN_01X01 M4
U 1 1 582C4841
P 10300 4500
F 0 "M4" H 10300 4600 50  0000 C CNN
F 1 "M3" V 10400 4500 50  0000 C CNN
F 2 "Local:MountingHole_3mm" H 10300 4500 50  0001 C CNN
F 3 "" H 10300 4500 50  0000 C CNN
	1    10300 4500
	0    -1   -1   0   
$EndComp
$Comp
L GND #PWR019
U 1 1 582C4B42
P 9100 4800
F 0 "#PWR019" H 9100 4550 50  0001 C CNN
F 1 "GND" H 9100 4650 50  0000 C CNN
F 2 "" H 9100 4800 50  0000 C CNN
F 3 "" H 9100 4800 50  0000 C CNN
	1    9100 4800
	1    0    0    -1  
$EndComp
Wire Wire Line
	9100 4700 9100 4800
$Comp
L GND #PWR020
U 1 1 582C4B93
P 9500 4800
F 0 "#PWR020" H 9500 4550 50  0001 C CNN
F 1 "GND" H 9500 4650 50  0000 C CNN
F 2 "" H 9500 4800 50  0000 C CNN
F 3 "" H 9500 4800 50  0000 C CNN
	1    9500 4800
	1    0    0    -1  
$EndComp
Wire Wire Line
	9500 4700 9500 4800
$Comp
L GND #PWR021
U 1 1 582C4C2C
P 9900 4800
F 0 "#PWR021" H 9900 4550 50  0001 C CNN
F 1 "GND" H 9900 4650 50  0000 C CNN
F 2 "" H 9900 4800 50  0000 C CNN
F 3 "" H 9900 4800 50  0000 C CNN
	1    9900 4800
	1    0    0    -1  
$EndComp
Wire Wire Line
	9900 4700 9900 4800
$Comp
L GND #PWR022
U 1 1 582C4C33
P 10300 4800
F 0 "#PWR022" H 10300 4550 50  0001 C CNN
F 1 "GND" H 10300 4650 50  0000 C CNN
F 2 "" H 10300 4800 50  0000 C CNN
F 3 "" H 10300 4800 50  0000 C CNN
	1    10300 4800
	1    0    0    -1  
$EndComp
Wire Wire Line
	10300 4700 10300 4800
Text Notes 1000 7200 0    60   ~ 0
/* controller supply winding calculation */\n\n/* U[IN] - input supply voltage */\n/* U[OUT] - output power voltage */\n/* U[SS] - controller supply voltage */\n/* W[IN] - input winding turns */\n/* W[OUT] - output winding turns */\n/* W[SS] - controller supply winding turns */\n\nQ[U[IN(MIN)]]: solve(W[OUT] / W[IN] = U[OUT(MIN)] / U[IN(MIN)], U[IN(MIN)])[1];\nQ[W[SS(MIN)]]: solve(W[SS] / W[IN] = U[SS(MIN)] / U[IN(MIN)], W[SS])[1], Q[U[IN(MIN)]];\nQ[W[SS(MAX)]]: Q[W[SS(MIN)]], U[SS(MIN)]=U[SS(MAX)], U[OUT(MIN)]=U[OUT(MAX)];\nQ[OUT]: Q[W[SS(MIN)]], Q[W[SS(MAX)]], U[OUT(MIN)]=U[OUT]/K[T], U[OUT(MAX)]=U[OUT]*K[T];\nQ[K[T]]: solve(Q[OUT], K[T])[2];\n\nPR[IN]: [W[IN]=180, W[OUT]=11.5, U[OUT]=5];\nPR[THX208]: [U[SS(MIN)]=4.8, U[SS(MAX)]=9.0];\n\nPR[K[T]]: Q[K[T]], PR[THX208];\nPR[OUT]: [U[OUT(MIN)]=U[OUT]/K[T], U[OUT(MAX)]=U[OUT]*K[T]], PR[IN], PR[K[T]];\n\nQ[W[SS(MIN)]], PR[IN], PR[THX208], PR[OUT];
Text Notes 8000 6300 0    60   ~ 0
/* Reference divider */\n\nEQ[U[OUT]]: solve(U[OUT]/U[REF] = (R[H]+R[L])/R[L], U[OUT])[1];\nEQ[R[H]]: solve(EQ[U[OUT]], R[H])[1];\n\nPR[TL431]: [U[REF]=2.5]$\nPR[U[OUT]]: U[OUT]=6.7$\nPR[R[L]]: R[L]=10e3$\n\nEQ[R[H]], PR[TL431], PR[U[OUT]], PR[R[L]];\nPR[R[H]]: R[H]=10e3+6.8e3$\nEQ[U[OUT]], PR[TL431], PR[R[L]], PR[R[H]];
Text Notes 7550 4850 0    60   ~ 0
R[L]
Text Notes 7550 4000 0    60   ~ 0
R[H]
$EndSCHEMATC
